<?xml version="1.0" encoding="UTF-8"?>
<svg width="108px" height="108px" viewBox="0 0 108 108" version="1.1" xmlns="http://www.w3.org/2000/svg" xmlns:xlink="http://www.w3.org/1999/xlink">
    <!-- Generator: Sketch 51.2 (57519) - http://www.bohemiancoding.com/sketch -->
    <title>Group 4</title>
    <desc>Created with Sketch.</desc>
    <defs></defs>
    <g id="Page-1" stroke="none" stroke-width="1" fill="none" fill-rule="evenodd">
        <g id="Group-4" transform="translate(4.000000, 4.000000)">
            <circle id="Oval" stroke="#FFFFFF" stroke-width="4" fill="#111314" cx="50" cy="50" r="52"></circle>
            <g id="Group" transform="translate(24.000000, 20.000000)" fill="#FFFFFF" fill-rule="nonzero">
                <path d="M26.3377509,47.3218507 C24.1316844,42.3233402 25.156154,36.6194746 28.9476345,32.792329 C32.7406863,28.967561 38.3980528,27.9333045 43.3562032,30.1587393 C43.4033413,30.1793452 43.4520508,30.188063 43.499189,30.2062913 L41.0700017,32.1289783 C40.056531,32.9310224 39.8789772,34.4098905 40.6748267,35.4330516 C41.1352095,36.0242818 41.8194987,36.3341625 42.5116442,36.3341625 C43.0160227,36.3341625 43.522758,36.170108 43.9501442,35.8316961 L50.1071754,30.9591984 C50.8048204,30.4075949 51.131645,29.5041064 50.9509487,28.627564 L49.3490364,20.8734136 C49.0866339,19.6021894 47.853185,18.7850871 46.5890963,19.0497934 C45.3281501,19.3144996 44.5181592,20.5611553 44.7805617,21.8339645 L45.520631,25.4162172 C45.5002045,25.4059142 45.4829205,25.3916486 45.4624939,25.3829308 C38.5284685,22.2706506 30.6092552,23.7273277 25.2826414,29.0959515 C19.9615272,34.4677454 18.5175278,42.4564859 21.6035069,49.4490114 C22.0324643,50.4222429 22.979156,51 23.9722002,51 C24.3241652,51 24.6824154,50.9270869 25.0241671,50.7733353 C26.3322515,50.1860678 26.9199074,48.6406269 26.3377509,47.3218507 Z" id="Shape"></path>
                <path d="M53.4287277,34.5445762 C52.858669,33.2322841 51.3544546,32.6419497 50.0708583,33.2244024 C48.7864906,33.8068552 48.2079466,35.3429858 48.7787767,36.6552779 C50.9425312,41.6309538 49.9358647,47.3041543 46.2138982,51.1062547 C42.5659854,54.8334797 37.1662414,55.8896187 32.3712687,53.8506399 L34.7517844,51.9432843 C35.7468801,51.1456629 35.9212147,49.6749499 35.1397946,48.6574309 C34.3591459,47.6407001 32.918957,47.4625751 31.9238613,48.2609847 L25.8769194,53.1074017 C25.1919233,53.6559635 24.8702528,54.5544698 25.0484443,55.4253904 L26.6205413,63.1367816 C26.8457877,64.2409986 27.7984568,65 28.8606636,65 C29.014942,65 29.172306,64.9834486 29.32967,64.9511339 C30.5677542,64.6870991 31.3630593,63.4481062 31.1054144,62.1823157 L30.3818487,58.6363683 C32.6451128,59.6050212 35.0055724,60.0842246 37.340576,60.0842246 C41.9311298,60.0842246 46.4113746,58.2564735 49.8124419,54.7806727 C55.0355372,49.4463825 56.4548985,41.5024831 53.4287277,34.5445762 Z" id="Shape"></path>
                <path d="M4.05801223,15.9723632 L41.9411997,15.9723632 L41.9411997,15.9778281 L46,15.9778281 L46,7.11374815 C46,5.63744242 44.7815718,4.43282067 43.2912433,4.43282067 L37.204619,4.43282067 L37.204619,2.44671715 C37.204619,1.10234991 36.0910103,0 34.7338736,0 L32.9117481,0 C31.5514589,0 30.4410026,1.10313061 30.4410026,2.44671715 L30.4410026,4.43282067 L15.5574211,4.43282067 L15.5574211,2.44671715 C15.5574211,1.10234991 14.4469649,0 13.0866757,0 L11.2645502,0 C9.90741344,0 8.79380472,1.10313061 8.79380472,2.44671715 L8.79380472,4.43282067 L2.70639231,4.43282067 C1.21921634,4.43282067 0,5.63744242 0,7.11374815 L0,47.3167304 C0,48.7930361 1.21842822,50 2.70639231,50 L15.4163483,50 L15.4163483,45.4571005 L4.05801223,45.4571005 L4.05801223,15.9723632 Z" id="Shape"></path>
            </g>
        </g>
    </g>
</svg>