<?xml version="1.0" encoding="UTF-8"?>
<svg width="199px" height="85px" viewBox="0 0 199 85" version="1.1" xmlns="http://www.w3.org/2000/svg" xmlns:xlink="http://www.w3.org/1999/xlink">
    <!-- Generator: Sketch 51.2 (57519) - http://www.bohemiancoding.com/sketch -->
    <title>Group 3</title>
    <desc>Created with Sketch.</desc>
    <defs></defs>
    <g id="Page-1" stroke="none" stroke-width="1" fill="none" fill-rule="evenodd">
        <g id="subscriptions" transform="translate(-151.000000, -107.000000)">
            <g id="Group-3" transform="translate(150.000000, 98.000000)">
                <g id="Group" transform="translate(148.000000, 70.000000) rotate(10.000000) translate(-148.000000, -70.000000) translate(105.000000, 42.000000)" fill-rule="nonzero">
                    <path d="M84.7830189,18.1966955 C83.2415094,14.8848676 81.7,11.5730396 80.0773585,8.26121164 C79.9962264,8.01888277 79.8339623,7.77655389 79.6716981,7.45344873 C80.1584906,7.21111985 80.645283,7.04956727 81.0509434,6.80723839 C81.5377358,6.56490952 81.9433962,6.24180435 82.3490566,5.91869919 C83.5660377,4.94938369 83.9716981,3.49541044 83.4037736,2.20298977 C82.6735849,0.587463939 81.5377358,-0.139522686 79.9150943,0.0220298977 C79.509434,0.0220298977 79.0226415,0.183582481 78.6169811,0.264358773 C77.2377358,0.749016522 75.9396226,1.15289798 74.6415094,1.71833202 C63.1207547,6.56490952 51.6811321,11.411487 40.2415094,16.1772882 C40.2415094,16.1772882 40.2415094,16.1772882 40.2415094,16.1772882 C28.8830189,21.1854183 17.4433962,26.1935484 6.08490566,31.2016785 C4.78679245,31.7671125 3.56981132,32.4133228 2.27169811,33.0595332 C1.86603774,33.2210858 1.54150943,33.4634146 1.21698113,33.7865198 C0.405660377,34.4327301 0.0811320755,35.2404931 0,36.048256 C0,36.61369 0.0811320755,37.179124 0.405660377,37.8253344 C0.486792453,37.986887 0.567924528,38.2292158 0.730188679,38.3907684 C1.37924528,39.3600839 2.51509434,39.7639654 3.81320755,39.6024128 C4.3,39.5216365 4.86792453,39.3600839 5.35471698,39.1985313 C5.84150943,39.0369788 6.24716981,38.8754262 6.81509434,38.6330973 C6.89622642,38.9562025 7.05849057,39.1985313 7.13962264,39.4408602 C8.51886792,42.8334645 9.81698113,46.2260687 11.1962264,49.618673 C12.0075472,51.4765277 13.2245283,53.0920535 14.7660377,54.4652505 C15.9830189,55.5153423 17.4433962,56 19.0660377,56 C20.6075472,56 22.0679245,55.7576711 23.5283019,55.1114608 C27.3415094,53.495935 31.154717,51.9611854 35.0490566,50.4264359 C37.2396226,49.4571204 39.3490566,48.3262523 41.2150943,46.872279 C43.3245283,45.3375295 44.5415094,43.2373459 45.0283019,40.7332809 C45.4339623,38.6330973 45.2716981,36.61369 44.3792453,34.5942827 C43.0811321,31.6863362 41.945283,28.859166 40.3226415,26.1127721 C39.5113208,24.7395751 39.5113208,24.6587988 40.6471698,23.5279308 C40.890566,23.2856019 41.1339623,23.043273 41.2962264,22.8009441 C41.7018868,22.3162864 42.1886792,21.9124049 42.7566038,21.6700761 C43.3245283,21.4277472 43.8924528,21.3469709 44.5415094,21.4277472 C44.8660377,21.4277472 45.190566,21.4277472 45.5150943,21.4277472 C47.1377358,21.4277472 47.1377358,21.4277472 47.6245283,22.9624967 C48.5169811,25.9512195 49.8150943,28.859166 51.0320755,31.6863362 C51.8433962,33.7057435 53.3037736,35.1597168 55.0886792,36.2905848 C57.2792453,37.6637818 59.6320755,38.2292158 62.2283019,37.7445581 C64.5811321,37.3406766 66.8528302,36.61369 69.0433962,35.7251508 C72.8566038,34.0288487 76.5886792,32.3325466 80.4018868,30.6362444 C81.8622642,29.9900341 82.9981132,29.1014949 84.1339623,27.9706268 C85.2698113,26.8397587 85.9188679,25.3857855 86,23.7702596 C86,21.9931812 85.6754717,20.0545502 84.7830189,18.1966955 Z M5.35471698,35.6443745 C5.35471698,35.7251508 5.35471698,35.8059271 5.35471698,35.9674797 C5.27358491,36.2905848 5.19245283,36.6944663 4.9490566,36.9367952 C4.38113208,37.5022292 3.56981132,37.6637818 3.08301887,37.3406766 C2.83962264,37.179124 2.67735849,36.8560189 2.67735849,36.5329137 C2.67735849,36.2098085 2.75849057,35.8059271 3.00188679,35.4828219 C3.00188679,35.4828219 3.00188679,35.4020456 3.08301887,35.4020456 C3.6509434,34.675059 4.54339623,34.4327301 5.03018868,34.8366116 C5.19245283,34.9173879 5.35471698,35.2404931 5.35471698,35.6443745 Z M39.9981132,32.0902177 C40.890566,34.1904013 41.6207547,36.2905848 41.8641509,38.552321 C41.8641509,38.7138736 41.8641509,38.9562025 41.945283,39.117755 C41.945283,39.5216365 41.945283,39.925518 41.945283,40.3293994 C41.945283,40.5717283 41.8641509,40.7332809 41.8641509,40.9756098 C41.8641509,41.1371623 41.7830189,41.2987149 41.7830189,41.5410438 C41.7830189,41.7025964 41.7018868,41.864149 41.6207547,42.0257015 C41.6207547,42.0257015 41.6207547,42.0257015 41.6207547,42.0257015 C41.6207547,42.1064778 41.5396226,42.2680304 41.4584906,42.3488067 C41.4584906,42.429583 41.3773585,42.5103593 41.3773585,42.5911356 C41.3773585,42.6719119 41.2962264,42.7526882 41.2962264,42.8334645 C41.2150943,42.995017 41.2150943,43.0757933 41.1339623,43.2373459 C41.0528302,43.3988985 40.9716981,43.4796748 40.890566,43.6412274 C40.809434,43.80278 40.7283019,43.8835563 40.6471698,44.0451088 C40.4037736,44.368214 40.1603774,44.6913192 39.9169811,45.0144243 C39.3490566,45.4183058 38.7,46.0645161 37.8886792,46.5491739 C33.5886792,49.2147915 28.9641509,51.1534225 24.0150943,52.3650669 C23.0415094,52.6073958 22.0679245,52.688172 21.0943396,52.7689483 C19.4716981,52.8497246 18.0924528,52.2842906 16.9566038,51.1534225 C16.3075472,50.5879885 15.7396226,49.8610018 15.2528302,49.1340152 C13.5490566,46.4683976 12.2509434,43.5604511 11.1962264,40.5717283 C11.1962264,40.4101757 11.1150943,40.3293994 11.1150943,40.1678468 C11.1150943,40.0870705 11.0339623,40.0062943 11.0339623,39.925518 C11.0339623,39.8447417 10.9528302,39.7639654 10.9528302,39.6024128 C10.9528302,39.5216365 10.9528302,39.4408602 10.8716981,39.2793076 C10.8716981,39.1985313 10.8716981,39.1985313 10.8716981,39.117755 C10.790566,38.6330973 10.709434,38.2292158 10.709434,37.7445581 C10.709434,37.6637818 10.709434,37.5022292 10.709434,37.4214529 C10.709434,37.2599003 10.709434,37.0175715 10.709434,36.8560189 C10.790566,35.4020456 11.6018868,34.3519538 12.8188679,33.5441909 C13.3867925,33.1403095 14.0358491,32.8172043 14.7660377,32.4940991 C18.254717,30.8785733 21.6622642,29.1822712 25.1509434,27.7282979 C27.5849057,26.6782061 30.1811321,26.0319958 32.6962264,25.2242329 C33.2641509,25.0626803 33.9132075,24.981904 34.5622642,24.9011277 C35.6981132,24.8203514 36.590566,25.2242329 37.2396226,26.1935484 C37.4830189,26.5166536 37.7264151,26.920535 37.8886792,27.3244165 C38.4566038,28.7783897 39.2679245,30.3939156 39.9981132,32.0902177 Z M79.7528302,2.20298977 C79.7528302,2.20298977 79.8339623,2.20298977 79.8339623,2.20298977 C80.645283,2.28376606 81.2132075,2.9299764 81.2132075,3.49541044 C81.1320755,4.14162077 80.4018868,4.62627852 79.6716981,4.62627852 C78.8603774,4.62627852 77.9679245,3.8992919 78.0490566,3.25308156 C78.0490566,2.60687123 78.8603774,2.12221348 79.7528302,2.20298977 Z M80.1584906,27.1628639 C79.4283019,27.8898505 78.6981132,28.5360608 77.8867925,29.0207186 C73.5867925,31.6863362 69.0433962,33.7865198 64.0943396,35.0789405 C63.2018868,35.3212693 62.309434,35.4020456 61.5792453,35.4828219 C58.9830189,35.3212693 56.954717,34.4327301 55.4132075,32.5748754 C53.9528302,30.797797 52.8981132,28.859166 52.0056604,26.7589824 C51.2754717,25.0626803 50.6264151,23.3663782 49.9773585,21.6700761 C49.8150943,21.2661946 49.7339623,20.8623131 49.6528302,20.4584317 C49.409434,19.3275636 49.7339623,18.4390244 50.545283,17.6312615 C51.0320755,17.22738 51.5188679,16.8234986 52.0867925,16.5003934 C54.4396226,15.2079727 56.7113208,13.8347758 59.0641509,12.784684 C62.5528302,11.2499344 66.1226415,9.87673748 69.6113208,8.50354052 C70.2603774,8.26121164 70.990566,8.01888277 71.7207547,7.85733019 C73.3433962,7.45344873 74.8849057,7.77655389 76.0207547,8.98819827 C76.7509434,9.71518489 77.4811321,10.6037241 77.9679245,11.4922633 C79.509434,14.2386572 80.645283,17.22738 81.4566038,20.2968791 C81.7,21.1854183 81.7811321,22.0739575 81.7811321,22.9624967 C81.8622642,24.5780226 81.3754717,26.0319958 80.1584906,27.1628639 Z" id="Shape" fill="#000000"></path>
                    <path d="M60.4488322,15.0925507 C60.20918,17.0093239 60.0494119,18.6865004 59.8896438,20.363677 C59.7298757,21.6415258 59.5701076,22.9193746 59.4103396,24.277089 C59.2505715,25.7146689 60.4488322,26.5931899 61.806861,26.1938622 C62.2861652,26.0341311 62.5258174,25.6348033 62.6855855,25.15561 C62.9252376,24.277089 63.0850057,23.3985679 63.2447738,22.4401813 C63.7240781,19.4052904 64.2832664,16.3703995 64.7625707,13.255643 C65.7211793,12.8563153 66.7596719,12.377122 67.7981645,11.9777942 C69.3958454,11.3388698 71.0734104,10.779811 72.6710914,10.1408866 C73.4699318,9.82142437 74.1888883,10.061021 74.7480766,10.6999454 C75.387149,11.4986009 76.0262213,12.2972564 76.5055256,13.1757775 C77.8635544,15.8912062 78.902047,18.6865004 79.7008875,21.5616602 C80.0204237,22.5999124 80.1003077,23.6381646 79.8606556,24.7562823 C79.7008875,25.5549378 79.3813513,26.1938622 78.822163,26.6730555 C77.3043661,28.1106354 75.467033,29.069022 73.5498159,30.1072741 C73.6296999,29.7079464 73.709584,29.4683497 73.709584,29.2287531 C74.1090042,27.6314421 74.5084245,25.9542655 74.8279606,24.3569545 C74.9078447,23.7978957 74.9078447,23.2388368 74.9078447,22.6797779 C74.8279606,21.8811224 74.3486564,21.5616602 73.5498159,21.5616602 C72.6710914,21.5616602 71.8722509,22.1207191 71.6325988,23.0791057 C71.3130626,24.1173579 71.1532945,25.2354756 70.9136423,26.3535933 C70.5142221,28.0307698 70.1946859,29.7079464 69.8751497,31.4649885 C69.7952657,31.7844507 69.7153816,32.0240473 69.3958454,32.1039129 C67.4786283,32.8227028 65.5614112,33.6213583 63.484426,33.9408205 C61.7269769,34.1804172 60.129296,33.7012239 58.8511512,32.3435095 C57.4132384,30.8260641 56.2948617,29.1488875 55.4960212,27.2321143 C54.6971808,25.3153411 53.9782243,23.3187023 53.2592679,21.3220636 C53.0994998,21.0026014 53.0994998,20.6032736 53.0196158,20.2838114 C52.9397317,19.7247526 53.0994998,19.3254248 53.5788041,19.0059626 C55.5759053,17.4885172 57.8925427,16.2905339 60.4488322,15.0925507 Z" id="Shape" fill="#000000"></path>
                    <path d="M38.6199851,34.2014136 C37.7313812,32.264899 36.7619952,30.3283844 35.7926092,28.3918699 C35.6310449,28.0691174 35.3886983,27.746365 35.1463518,27.5043007 C34.8232232,27.1008601 34.3385302,26.9394839 33.8538372,27.020172 C31.3495899,27.5043007 29.0069071,28.3111818 26.583442,29.3601272 L26.5026598,29.3601272 L26.4218777,29.3601272 C26.3410955,29.3601272 26.2603133,29.4408153 26.1795312,29.4408153 C25.7756203,29.6021915 25.2101451,29.8442558 24.64467,30.0863201 C24.64467,30.0863201 24.64467,30.0863201 24.64467,30.0863201 C24.159977,33.1524682 23.6752839,36.2186163 23.1905909,39.2847644 C23.0290266,40.1723336 22.8674623,41.0599028 22.6251158,42.0281601 C22.5443336,42.5122887 22.2212049,42.9157292 21.7365119,43.0771055 C20.363215,43.5612341 19.1514825,42.5929768 19.3130469,41.221279 C19.4746112,39.9302693 19.6361755,38.6392595 19.7169577,37.2675617 C19.878522,35.6537996 20.0400864,33.9593493 20.2016507,32.1035228 C19.7169577,32.3455871 19.2322647,32.5069634 18.7475717,32.7490277 C17.2127105,33.4752206 15.5970671,34.2821017 14.0622059,35.0889828 C13.2543842,35.4924233 12.9312556,36.1379282 13.0120377,36.9448093 C13.0928199,37.9937547 13.2543842,38.962012 13.5775129,39.9302693 C14.6276811,42.754353 15.9201958,45.4977487 17.5358392,48.0797681 C18.1013143,49.0480254 18.8283538,49.8549065 19.7977399,50.4197233 C20.4439972,50.8231638 21.1710367,51.0652281 21.9788584,50.98454 C23.8368483,50.9038519 25.614056,50.3390352 27.4720459,49.6935303 L27.552828,49.6935303 C27.7951745,49.6128422 27.9567389,49.5321541 28.1990854,49.451466 C28.1990854,49.451466 28.1990854,49.451466 28.1990854,49.451466 C28.522214,49.2900898 29.0069071,49.1287135 29.4916001,48.9673373 L30.3802039,48.5638968 L30.8648969,48.4025206 C31.1072434,48.3218325 31.3495899,48.2411444 31.5919364,48.1604563 C31.6727186,48.0797681 31.6727186,47.9183919 31.7535008,47.8377038 C32.1574116,46.1432536 32.5613225,44.4488033 32.9652333,42.754353 C33.2075798,41.6247195 33.5307085,40.5757741 33.8538372,39.5268287 C34.1769658,38.6392595 34.9040053,38.0744428 35.8733914,38.0744428 C36.681213,38.0744428 37.1659061,38.4778833 37.1659061,39.2040763 C37.1659061,39.768893 37.1659061,40.3337098 37.0043417,40.8985266 C36.6004309,42.5122887 36.19652,44.1260509 35.711827,45.739813 C35.711827,45.9011892 35.6310449,46.0625654 35.5502627,46.2239417 C36.3580844,45.739813 37.1659061,45.2556844 37.9737277,44.6908676 C39.4278068,43.5612341 40.0740641,42.0281601 39.9932819,40.1723336 C39.9124998,38.0744428 39.4278068,36.0572401 38.6199851,34.2014136 Z" id="Shape" fill="#FFC46E"></path>
                    <path d="M38.6199851,34.2014136 C37.7313812,32.264899 36.7619952,30.3283844 35.7926092,28.3918699 C35.6310449,28.0691174 35.3886983,27.746365 35.1463518,27.5043007 C34.8232232,27.1008601 34.3385302,26.9394839 33.8538372,27.020172 C31.3495899,27.5043007 29.0069071,28.3111818 26.583442,29.3601272 L26.5026598,29.3601272 L26.4218777,29.3601272 C26.3410955,29.3601272 26.2603133,29.4408153 26.1795312,29.4408153 C25.7756203,29.6021915 25.2101451,29.8442558 24.64467,30.0863201 C24.64467,30.0863201 24.64467,30.0863201 24.64467,30.0863201 C24.159977,33.1524682 23.6752839,36.2186163 23.1905909,39.2847644 C23.0290266,40.1723336 22.8674623,41.0599028 22.6251158,42.0281601 C22.5443336,42.5122887 22.2212049,42.9157292 21.7365119,43.0771055 C20.363215,43.5612341 19.1514825,42.5929768 19.3130469,41.221279 C19.4746112,39.9302693 19.6361755,38.6392595 19.7169577,37.2675617 C19.878522,35.6537996 20.0400864,33.9593493 20.2016507,32.1035228 C19.7169577,32.3455871 19.2322647,32.5069634 18.7475717,32.7490277 C17.2127105,33.4752206 15.5970671,34.2821017 14.0622059,35.0889828 C13.2543842,35.4924233 12.9312556,36.1379282 13.0120377,36.9448093 C13.0928199,37.9937547 13.2543842,38.962012 13.5775129,39.9302693 C14.6276811,42.754353 15.9201958,45.4977487 17.5358392,48.0797681 C18.1013143,49.0480254 18.8283538,49.8549065 19.7977399,50.4197233 C20.4439972,50.8231638 21.1710367,51.0652281 21.9788584,50.98454 C23.8368483,50.9038519 25.614056,50.3390352 27.4720459,49.6935303 L27.552828,49.6935303 C27.7951745,49.6128422 27.9567389,49.5321541 28.1990854,49.451466 C28.1990854,49.451466 28.1990854,49.451466 28.1990854,49.451466 C28.522214,49.2900898 29.0069071,49.1287135 29.4916001,48.9673373 L30.3802039,48.5638968 L30.8648969,48.4025206 C31.1072434,48.3218325 31.3495899,48.2411444 31.5919364,48.1604563 C31.6727186,48.0797681 31.6727186,47.9183919 31.7535008,47.8377038 C32.1574116,46.1432536 32.5613225,44.4488033 32.9652333,42.754353 C33.2075798,41.6247195 33.5307085,40.5757741 33.8538372,39.5268287 C34.1769658,38.6392595 34.9040053,38.0744428 35.8733914,38.0744428 C36.681213,38.0744428 37.1659061,38.4778833 37.1659061,39.2040763 C37.1659061,39.768893 37.1659061,40.3337098 37.0043417,40.8985266 C36.6004309,42.5122887 36.19652,44.1260509 35.711827,45.739813 C35.711827,45.9011892 35.6310449,46.0625654 35.5502627,46.2239417 C36.3580844,45.739813 37.1659061,45.2556844 37.9737277,44.6908676 C39.4278068,43.5612341 40.0740641,42.0281601 39.9932819,40.1723336 C39.9124998,38.0744428 39.4278068,36.0572401 38.6199851,34.2014136 Z" id="Shape" fill="#FFC46E"></path>
                    <path d="M35.1463518,27.5043007 C34.8232232,27.1008601 34.3385302,26.9394839 33.8538372,27.020172 C31.3495899,27.5043007 29.0069071,28.3111818 26.583442,29.3601272 L26.5026598,29.3601272 L26.4218777,29.3601272 C26.3410955,29.3601272 26.2603133,29.4408153 26.1795312,29.4408153 C25.7756203,29.6021915 25.2101451,29.8442558 24.64467,30.0863201 C24.64467,30.0863201 24.64467,30.0863201 24.64467,30.0863201 C24.159977,33.1524682 23.6752839,36.2186163 23.1905909,39.2847644 C23.0290266,40.1723336 22.8674623,41.0599028 22.6251158,42.0281601 C22.5443336,42.5122887 22.2212049,42.9157292 21.7365119,43.0771055 C20.363215,43.5612341 19.1514825,42.5929768 19.3130469,41.221279 C19.4746112,39.9302693 19.6361755,38.6392595 19.7169577,37.2675617 C19.878522,35.6537996 20.0400864,33.9593493 20.2016507,32.1035228 C19.7169577,32.3455871 19.2322647,32.5069634 18.7475717,32.7490277 C17.2127105,33.4752206 15.5970671,34.2821017 14.0622059,35.0889828 C13.2543842,35.4924233 12.9312556,36.1379282 13.0120377,36.9448093 C13.0928199,37.9937547 13.2543842,38.962012 13.5775129,39.9302693 C14.6276811,42.754353 15.9201958,45.4977487 17.5358392,48.0797681 C18.1013143,49.0480254 18.8283538,49.8549065 19.7977399,50.4197233 C20.4439972,50.8231638 21.1710367,51.0652281 21.9788584,50.98454 C23.8368483,50.9038519 25.614056,50.3390352 27.4720459,49.6935303 L27.552828,49.6935303 C27.7951745,49.6128422 27.9567389,49.5321541 28.1990854,49.451466 C28.1990854,49.451466 28.1990854,49.451466 28.1990854,49.451466 C28.522214,49.2900898 29.0069071,49.1287135 29.4916001,48.9673373 L30.3802039,48.5638968 L30.8648969,48.4025206 C31.1072434,48.3218325 31.3495899,48.2411444 31.5919364,48.1604563 C31.6727186,48.0797681 31.6727186,47.9183919 31.7535008,47.8377038 C32.1574116,46.1432536 32.5613225,44.4488033 32.9652333,42.754353 C33.2075798,41.6247195 33.5307085,40.5757741 33.8538372,39.5268287 C34.1769658,38.6392595 34.9040053,38.0744428 35.8733914,38.0744428 C36.681213,38.0744428 37.1659061,38.4778833 37.1659061,39.2040763 C37.1659061,39.768893 37.1659061,40.3337098 37.0043417,40.8985266 C36.6004309,42.5122887 36.19652,44.1260509 35.711827,45.739813 C35.711827,45.9011892 35.6310449,46.0625654 35.5502627,46.2239417 C36.3580844,45.739813 37.1659061,45.2556844 37.9737277,44.6908676 C39.4278068,43.5612341 40.0740641,42.0281601 39.9932819,40.1723336 C39.9124998,38.0744428 39.4278068,36.0572401 38.5392029,34.1207255 C37.6505991,32.1842109 36.681213,30.2476963 35.711827,28.3111818 C35.6310449,28.0691174 35.3886983,27.746365 35.1463518,27.5043007 Z" id="Shape" fill="#FFC46E"></path>
                    <path d="M38.6199851,34.2014136 C37.7313812,32.264899 36.7619952,30.3283844 35.7926092,28.3918699 C35.6310449,28.0691174 35.3886983,27.746365 35.1463518,27.5043007 C34.8232232,27.1008601 34.3385302,26.9394839 33.8538372,27.020172 C31.3495899,27.5043007 29.0069071,28.3111818 26.583442,29.3601272 L26.5026598,29.3601272 L26.4218777,29.3601272 C26.3410955,29.3601272 26.2603133,29.4408153 26.1795312,29.4408153 C25.7756203,29.6021915 25.2101451,29.8442558 24.64467,30.0863201 C24.64467,30.0863201 24.64467,30.0863201 24.64467,30.0863201 C24.159977,33.1524682 23.6752839,36.2186163 23.1905909,39.2847644 C23.0290266,40.1723336 22.8674623,41.0599028 22.6251158,42.0281601 C22.5443336,42.5122887 22.2212049,42.9157292 21.7365119,43.0771055 C20.363215,43.5612341 19.1514825,42.5929768 19.3130469,41.221279 C19.4746112,39.9302693 19.6361755,38.6392595 19.7169577,37.2675617 C19.878522,35.6537996 20.0400864,33.9593493 20.2016507,32.1035228 C19.7169577,32.3455871 19.2322647,32.5069634 18.7475717,32.7490277 C17.2127105,33.4752206 15.5970671,34.2821017 14.0622059,35.0889828 C13.2543842,35.4924233 12.9312556,36.1379282 13.0120377,36.9448093 C13.0928199,37.9937547 13.2543842,38.962012 13.5775129,39.9302693 C14.6276811,42.754353 15.9201958,45.4977487 17.5358392,48.0797681 C18.1013143,49.0480254 18.8283538,49.8549065 19.7977399,50.4197233 C20.4439972,50.8231638 21.1710367,51.0652281 21.9788584,50.98454 C23.8368483,50.9038519 25.614056,50.3390352 27.4720459,49.6935303 L27.552828,49.6935303 C27.7951745,49.6128422 27.9567389,49.5321541 28.1990854,49.451466 C28.1990854,49.451466 28.1990854,49.451466 28.1990854,49.451466 C28.522214,49.2900898 29.0069071,49.1287135 29.4916001,48.9673373 L30.3802039,48.5638968 L30.8648969,48.4025206 C31.1072434,48.3218325 31.3495899,48.2411444 31.5919364,48.1604563 C31.6727186,48.0797681 31.6727186,47.9183919 31.7535008,47.8377038 C32.1574116,46.1432536 32.5613225,44.4488033 32.9652333,42.754353 C33.2075798,41.6247195 33.5307085,40.5757741 33.8538372,39.5268287 C34.1769658,38.6392595 34.9040053,38.0744428 35.8733914,38.0744428 C36.681213,38.0744428 37.1659061,38.4778833 37.1659061,39.2040763 C37.1659061,39.768893 37.1659061,40.3337098 37.0043417,40.8985266 C36.6004309,42.5122887 36.19652,44.1260509 35.711827,45.739813 C35.711827,45.9011892 35.6310449,46.0625654 35.5502627,46.2239417 C36.3580844,45.739813 37.1659061,45.2556844 37.9737277,44.6908676 C39.4278068,43.5612341 40.0740641,42.0281601 39.9932819,40.1723336 C39.9124998,38.0744428 39.4278068,36.0572401 38.6199851,34.2014136 Z" id="Shape" fill="#FFC46E"></path>
                    <path d="M38.6199851,34.2014136 C37.7313812,32.264899 36.7619952,30.3283844 35.7926092,28.3918699 C35.6310449,28.0691174 35.3886983,27.746365 35.1463518,27.5043007 C34.8232232,27.1008601 34.3385302,26.9394839 33.8538372,27.020172 C31.3495899,27.5043007 29.0069071,28.3111818 26.583442,29.3601272 L26.5026598,29.3601272 L26.4218777,29.3601272 C26.3410955,29.3601272 26.2603133,29.4408153 26.1795312,29.4408153 C25.7756203,29.6021915 25.2101451,29.8442558 24.64467,30.0863201 C24.64467,30.0863201 24.64467,30.0863201 24.64467,30.0863201 C24.159977,33.1524682 23.6752839,36.2186163 23.1905909,39.2847644 C23.0290266,40.1723336 22.8674623,41.0599028 22.6251158,42.0281601 C22.5443336,42.5122887 22.2212049,42.9157292 21.7365119,43.0771055 C20.363215,43.5612341 19.1514825,42.5929768 19.3130469,41.221279 C19.4746112,39.9302693 19.6361755,38.6392595 19.7169577,37.2675617 C19.878522,35.6537996 20.0400864,33.9593493 20.2016507,32.1035228 C19.7169577,32.3455871 19.2322647,32.5069634 18.7475717,32.7490277 C17.2127105,33.4752206 15.5970671,34.2821017 14.0622059,35.0889828 C13.2543842,35.4924233 12.9312556,36.1379282 13.0120377,36.9448093 C13.0928199,37.9937547 13.2543842,38.962012 13.5775129,39.9302693 C14.6276811,42.754353 15.9201958,45.4977487 17.5358392,48.0797681 C18.1013143,49.0480254 18.8283538,49.8549065 19.7977399,50.4197233 C20.4439972,50.8231638 21.1710367,51.0652281 21.9788584,50.98454 C23.8368483,50.9038519 25.614056,50.3390352 27.4720459,49.6935303 L27.552828,49.6935303 C27.7951745,49.6128422 27.9567389,49.5321541 28.1990854,49.451466 C28.1990854,49.451466 28.1990854,49.451466 28.1990854,49.451466 C28.522214,49.2900898 29.0069071,49.1287135 29.4916001,48.9673373 L30.3802039,48.5638968 L30.8648969,48.4025206 C31.1072434,48.3218325 31.3495899,48.2411444 31.5919364,48.1604563 C31.6727186,48.0797681 31.6727186,47.9183919 31.7535008,47.8377038 C32.1574116,46.1432536 32.5613225,44.4488033 32.9652333,42.754353 C33.2075798,41.6247195 33.5307085,40.5757741 33.8538372,39.5268287 C34.1769658,38.6392595 34.9040053,38.0744428 35.8733914,38.0744428 C36.681213,38.0744428 37.1659061,38.4778833 37.1659061,39.2040763 C37.1659061,39.768893 37.1659061,40.3337098 37.0043417,40.8985266 C36.6004309,42.5122887 36.19652,44.1260509 35.711827,45.739813 C35.711827,45.9011892 35.6310449,46.0625654 35.5502627,46.2239417 C36.3580844,45.739813 37.1659061,45.2556844 37.9737277,44.6908676 C39.4278068,43.5612341 40.0740641,42.0281601 39.9932819,40.1723336 C39.9124998,38.0744428 39.4278068,36.0572401 38.6199851,34.2014136 Z" id="Shape" fill="#000000"></path>
                </g>
                <g id="Group-2" fill="#000000">
                    <path d="M29.8632812,31.7578125 C29.8632812,32.7604217 29.7363294,33.6621054 29.4824219,34.4628906 C29.2285144,35.2636759 28.8932312,35.970049 28.4765625,36.5820312 C28.0598938,37.1940135 27.5716174,37.7148416 27.0117188,38.1445312 C26.4518201,38.5742209 25.8723988,38.9257799 25.2734375,39.1992188 C24.6744762,39.4726576 24.0657583,39.6744785 23.4472656,39.8046875 C22.8287729,39.9348965 22.2460965,40 21.6992188,40 L2.109375,40 L2.109375,34.921875 L21.6992188,34.921875 C22.6757861,34.921875 23.4342421,34.6354195 23.9746094,34.0625 C24.5149767,33.4895805 24.7851562,32.721359 24.7851562,31.7578125 C24.7851562,31.2890602 24.7135424,30.859377 24.5703125,30.46875 C24.4270826,30.078123 24.2220065,29.7395848 23.9550781,29.453125 C23.6881497,29.1666652 23.3626321,28.9453133 22.9785156,28.7890625 C22.5943991,28.6328117 22.1679711,28.5546875 21.6992188,28.5546875 L10.0195312,28.5546875 C9.19921465,28.5546875 8.31380684,28.4082046 7.36328125,28.1152344 C6.41275566,27.8222642 5.53060303,27.3502637 4.71679688,26.6992188 C3.90299072,26.0481738 3.22591416,25.1953178 2.68554688,24.140625 C2.14517959,23.0859322 1.875,21.7968826 1.875,20.2734375 C1.875,18.7499924 2.14517959,17.4641979 2.68554688,16.4160156 C3.22591416,15.3678333 3.90299072,14.5149772 4.71679688,13.8574219 C5.53060303,13.1998665 6.41275566,12.7246108 7.36328125,12.4316406 C8.31380684,12.1386704 9.19921465,11.9921875 10.0195312,11.9921875 L27.3046875,11.9921875 L27.3046875,17.0703125 L10.0195312,17.0703125 C9.05598477,17.0703125 8.30403916,17.3632783 7.76367188,17.9492188 C7.22330459,18.5351592 6.953125,19.309891 6.953125,20.2734375 C6.953125,21.2500049 7.22330459,22.0214815 7.76367188,22.5878906 C8.30403916,23.1542997 9.05598477,23.4375 10.0195312,23.4375 L21.7382812,23.4375 C22.285159,23.4505209 22.8645803,23.5253899 23.4765625,23.6621094 C24.0885447,23.7988288 24.6972626,24.0104152 25.3027344,24.296875 C25.9082062,24.5833348 26.4843723,24.9446593 27.03125,25.3808594 C27.5781277,25.8170595 28.0631489,26.3411428 28.4863281,26.953125 C28.9095073,27.5651072 29.2447904,28.2682252 29.4921875,29.0625 C29.7395846,29.8567748 29.8632812,30.7552033 29.8632812,31.7578125 Z M56.6015625,37.4414062 C56.6015625,37.8059914 56.536459,38.1445297 56.40625,38.4570312 C56.276041,38.7695328 56.0970063,39.0397124 55.8691406,39.2675781 C55.6412749,39.4954438 55.3743505,39.6744785 55.0683594,39.8046875 C54.7623683,39.9348965 54.4335955,40 54.0820312,40 L42.5976562,40 C41.9726531,40 41.3053421,39.9283861 40.5957031,39.7851562 C39.8860642,39.6419264 39.1862014,39.4108089 38.4960938,39.0917969 C37.8059861,38.7727849 37.1386751,38.3691431 36.4941406,37.8808594 C35.8496062,37.3925757 35.2864607,36.8001337 34.8046875,36.1035156 C34.3229143,35.4068976 33.9355483,34.6028691 33.6425781,33.6914062 C33.3496079,32.7799434 33.203125,31.7513078 33.203125,30.6054688 L33.203125,18.8867188 L38.28125,18.8867188 L38.28125,30.6054688 C38.28125,31.2695346 38.3951812,31.8652317 38.6230469,32.3925781 C38.8509126,32.9199245 39.1601543,33.3723939 39.5507812,33.75 C39.9414082,34.1276061 40.400388,34.4173167 40.9277344,34.6191406 C41.4550808,34.8209646 42.0247365,34.921875 42.6367188,34.921875 L51.5234375,34.921875 L51.5234375,18.8867188 L56.6015625,18.8867188 L56.6015625,37.4414062 Z M84.765625,40 L79.6875,40 L79.6875,28.28125 C79.6875,27.6171842 79.5735688,27.021487 79.3457031,26.4941406 C79.1178374,25.9667942 78.8085957,25.5143248 78.4179688,25.1367188 C78.0273418,24.7591127 77.568362,24.4694021 77.0410156,24.2675781 C76.5136692,24.0657542 75.9440135,23.9648438 75.3320312,23.9648438 L66.4453125,23.9648438 L66.4453125,40 L61.3671875,40 L61.3671875,21.40625 C61.3671875,21.0546857 61.432291,20.725913 61.5625,20.4199219 C61.692709,20.1139308 61.8749988,19.8470063 62.109375,19.6191406 C62.3437512,19.3912749 62.6171859,19.2122402 62.9296875,19.0820312 C63.2421891,18.9518223 63.574217,18.8867188 63.9257812,18.8867188 L75.3710938,18.8867188 C76.0091178,18.8867188 76.6829392,18.9583326 77.3925781,19.1015625 C78.1022171,19.2447924 78.8053351,19.4759099 79.5019531,19.7949219 C80.1985712,20.1139339 80.8626271,20.5175757 81.4941406,21.0058594 C82.1256542,21.4941431 82.6855444,22.0865851 83.1738281,22.7832031 C83.6621118,23.4798212 84.0494777,24.2838496 84.3359375,25.1953125 C84.6223973,26.1067754 84.765625,27.1354109 84.765625,28.28125 L84.765625,40 Z M112.1875,42.03125 C112.1875,42.9036502 112.076824,43.6881476 111.855469,44.3847656 C111.634113,45.0813837 111.341148,45.6933567 110.976562,46.2207031 C110.611977,46.7480495 110.188804,47.1972638 109.707031,47.5683594 C109.225258,47.939455 108.720706,48.2421863 108.193359,48.4765625 C107.666013,48.7109387 107.132164,48.883463 106.591797,48.9941406 C106.05143,49.1048183 105.540367,49.1601562 105.058594,49.1601562 L95.8984375,49.1601562 L95.8984375,44.0820312 L105.058594,44.0820312 C105.748701,44.0820312 106.263019,43.9062518 106.601562,43.5546875 C106.940106,43.2031232 107.109375,42.6953158 107.109375,42.03125 L107.109375,25.9960938 C107.109375,25.3320279 106.940106,24.8274757 106.601562,24.4824219 C106.263019,24.1373681 105.748701,23.9648438 105.058594,23.9648438 L95.8984375,23.9648438 C95.2734344,23.9648438 94.7786477,24.1568991 94.4140625,24.5410156 C94.0494773,24.9251321 93.8671875,25.4101533 93.8671875,25.9960938 L93.8671875,32.8710938 C93.8671875,33.5351596 94.042967,34.042967 94.3945312,34.3945312 C94.7460955,34.7460955 95.2604133,34.921875 95.9375,34.921875 L105.058594,34.921875 L105.058594,40 L95.8984375,40 C95.4166643,40 94.9088568,39.944662 94.375,39.8339844 C93.8411432,39.7233067 93.3105495,39.5507824 92.7832031,39.3164062 C92.2558567,39.0820301 91.7513045,38.7792987 91.2695312,38.4082031 C90.787758,38.0371075 90.3645852,37.5878933 90,37.0605469 C89.6354148,36.5332005 89.342449,35.9212274 89.1210938,35.2246094 C88.8997385,34.5279913 88.7890625,33.7434939 88.7890625,32.8710938 L88.7890625,25.9960938 C88.7890625,25.5143205 88.8444005,25.0065131 88.9550781,24.4726562 C89.0657558,23.9387994 89.2382801,23.4082058 89.4726562,22.8808594 C89.7070324,22.353513 90.0097638,21.8489607 90.3808594,21.3671875 C90.751955,20.8854143 91.2011692,20.4622414 91.7285156,20.0976562 C92.255862,19.7330711 92.8645799,19.4401053 93.5546875,19.21875 C94.2447951,18.9973947 95.0260373,18.8867188 95.8984375,18.8867188 L105.058594,18.8867188 C105.540367,18.8867188 106.05143,18.9420567 106.591797,19.0527344 C107.132164,19.163412 107.666013,19.3359363 108.193359,19.5703125 C108.720706,19.8046887 109.225258,20.10742 109.707031,20.4785156 C110.188804,20.8496112 110.611977,21.2988255 110.976562,21.8261719 C111.341148,22.3535183 111.634113,22.9622361 111.855469,23.6523438 C112.076824,24.3424514 112.1875,25.1236936 112.1875,25.9960938 L112.1875,42.03125 Z M126.113281,40 L123.847656,40 C123.118486,40 122.340499,39.8763033 121.513672,39.6289062 C120.686845,39.3815092 119.915368,38.9746122 119.199219,38.4082031 C118.483069,37.841794 117.890627,37.1061243 117.421875,36.2011719 C116.953123,35.2962194 116.71875,34.1862045 116.71875,32.8710938 L116.71875,9.9609375 L121.796875,9.9609375 L121.796875,32.8710938 C121.796875,33.4960969 121.992186,33.9941388 122.382812,34.3652344 C122.773439,34.73633 123.261716,34.921875 123.847656,34.921875 L126.113281,34.921875 L126.113281,40 Z M151.171875,33.0078125 C151.171875,33.710941 151.048178,34.469397 150.800781,35.2832031 C150.553384,36.0970093 150.152998,36.8522101 149.599609,37.5488281 C149.046221,38.2454462 148.323572,38.8281227 147.431641,39.296875 C146.539709,39.7656273 145.455736,40 144.179688,40 L135.019531,40 C134.316403,40 133.557947,39.8763033 132.744141,39.6289062 C131.930334,39.3815092 131.175134,38.9811226 130.478516,38.4277344 C129.781898,37.8743462 129.199221,37.1516972 128.730469,36.2597656 C128.261716,35.3678341 128.027344,34.2838605 128.027344,33.0078125 C128.027344,32.304684 128.15104,31.5429729 128.398438,30.7226562 C128.645835,29.9023396 129.046221,29.1438837 129.599609,28.4472656 C130.152998,27.7506476 130.875647,27.1679711 131.767578,26.6992188 C132.65951,26.2304664 133.743483,25.9960938 135.019531,25.9960938 L144.179688,25.9960938 L144.179688,30.8398438 L135.019531,30.8398438 C134.329424,30.8398438 133.795575,31.0514302 133.417969,31.4746094 C133.040363,31.8977886 132.851562,32.4218719 132.851562,33.046875 C132.851562,33.7109408 133.069659,34.2285138 133.505859,34.5996094 C133.942059,34.970705 134.459632,35.15625 135.058594,35.15625 L144.179688,35.15625 C144.869795,35.15625 145.403644,34.9479187 145.78125,34.53125 C146.158856,34.1145813 146.347656,33.5937531 146.347656,32.96875 L146.347656,25.8789062 C146.347656,25.2148404 146.14258,24.687502 145.732422,24.296875 C145.322264,23.906248 144.804691,23.7109375 144.179688,23.7109375 L133.027344,23.7109375 L133.027344,18.8867188 L144.179688,18.8867188 C144.882816,18.8867188 145.641272,19.0104154 146.455078,19.2578125 C147.268884,19.5052096 148.024085,19.9055962 148.720703,20.4589844 C149.417321,21.0123726 149.999998,21.7350216 150.46875,22.6269531 C150.937502,23.5188847 151.171875,24.6028582 151.171875,25.8789062 L151.171875,33.0078125 Z M175.917969,32.8710938 C175.917969,33.7434939 175.807293,34.5279913 175.585938,35.2246094 C175.364582,35.9212274 175.071616,36.5332005 174.707031,37.0605469 C174.342446,37.5878933 173.919273,38.0371075 173.4375,38.4082031 C172.955727,38.7792987 172.451175,39.0820301 171.923828,39.3164062 C171.396482,39.5507824 170.862633,39.7233067 170.322266,39.8339844 C169.781898,39.944662 169.270836,40 168.789062,40 L155.039062,40 L155.039062,34.921875 L168.75,34.921875 C169.440108,34.921875 169.960936,34.7460955 170.3125,34.3945312 C170.664064,34.042967 170.839844,33.5351596 170.839844,32.8710938 C170.774739,31.5169203 170.091152,30.8398438 168.789062,30.8398438 L160.917969,30.8398438 C159.798171,30.8398438 158.84766,30.6445332 158.066406,30.2539062 C157.285152,29.8632793 156.650393,29.3750029 156.162109,28.7890625 C155.673826,28.2031221 155.322267,27.571618 155.107422,26.8945312 C154.892577,26.2174445 154.785156,25.5859404 154.785156,25 C154.785156,23.8671818 154.986977,22.9134153 155.390625,22.1386719 C155.794273,21.3639284 156.30208,20.7356795 156.914062,20.2539062 C157.526045,19.772133 158.190101,19.4238292 158.90625,19.2089844 C159.622399,18.9941396 160.292966,18.8867188 160.917969,18.8867188 L173.398438,18.8867188 L173.398438,23.9648438 L160.957031,23.9648438 C160.696613,23.9648438 160.491537,23.9941403 160.341797,24.0527344 C160.192057,24.1113284 160.081381,24.1894526 160.009766,24.2871094 C159.938151,24.3847661 159.895833,24.4889317 159.882812,24.5996094 C159.869792,24.710287 159.863281,24.8177078 159.863281,24.921875 C159.876302,25.1302094 159.915364,25.2929682 159.980469,25.4101562 C160.045573,25.5273443 160.126953,25.6119789 160.224609,25.6640625 C160.322266,25.7161461 160.432942,25.7454427 160.556641,25.7519531 C160.680339,25.7584636 160.800781,25.7617188 160.917969,25.7617188 L168.789062,25.7617188 C170.091152,25.7617188 171.197912,25.9960914 172.109375,26.4648438 C173.020838,26.9335961 173.756508,27.5227829 174.316406,28.2324219 C174.876305,28.9420608 175.283202,29.7135375 175.537109,30.546875 C175.791017,31.3802125 175.917969,32.1549443 175.917969,32.8710938 Z M199.882812,32.8710938 C199.882812,33.7434939 199.772137,34.5279913 199.550781,35.2246094 C199.329426,35.9212274 199.03646,36.5332005 198.671875,37.0605469 C198.30729,37.5878933 197.884117,38.0371075 197.402344,38.4082031 C196.920571,38.7792987 196.416018,39.0820301 195.888672,39.3164062 C195.361325,39.5507824 194.827477,39.7233067 194.287109,39.8339844 C193.746742,39.944662 193.235679,40 192.753906,40 L179.003906,40 L179.003906,34.921875 L192.714844,34.921875 C193.404951,34.921875 193.925779,34.7460955 194.277344,34.3945312 C194.628908,34.042967 194.804688,33.5351596 194.804688,32.8710938 C194.739583,31.5169203 194.055996,30.8398438 192.753906,30.8398438 L184.882812,30.8398438 C183.763015,30.8398438 182.812504,30.6445332 182.03125,30.2539062 C181.249996,29.8632793 180.615237,29.3750029 180.126953,28.7890625 C179.638669,28.2031221 179.28711,27.571618 179.072266,26.8945312 C178.857421,26.2174445 178.75,25.5859404 178.75,25 C178.75,23.8671818 178.951821,22.9134153 179.355469,22.1386719 C179.759117,21.3639284 180.266924,20.7356795 180.878906,20.2539062 C181.490888,19.772133 182.154944,19.4238292 182.871094,19.2089844 C183.587243,18.9941396 184.257809,18.8867188 184.882812,18.8867188 L197.363281,18.8867188 L197.363281,23.9648438 L184.921875,23.9648438 C184.661457,23.9648438 184.456381,23.9941403 184.306641,24.0527344 C184.1569,24.1113284 184.046224,24.1894526 183.974609,24.2871094 C183.902994,24.3847661 183.860677,24.4889317 183.847656,24.5996094 C183.834635,24.710287 183.828125,24.8177078 183.828125,24.921875 C183.841146,25.1302094 183.880208,25.2929682 183.945312,25.4101562 C184.010417,25.5273443 184.091796,25.6119789 184.189453,25.6640625 C184.28711,25.7161461 184.397786,25.7454427 184.521484,25.7519531 C184.645183,25.7584636 184.765624,25.7617188 184.882812,25.7617188 L192.753906,25.7617188 C194.055996,25.7617188 195.162756,25.9960914 196.074219,26.4648438 C196.985682,26.9335961 197.721351,27.5227829 198.28125,28.2324219 C198.841149,28.9420608 199.248046,29.7135375 199.501953,30.546875 C199.755861,31.3802125 199.882812,32.1549443 199.882812,32.8710938 Z" id="Sunglass"></path>
                    <path d="M28.0273438,91 L9.70703125,91 C9.23827891,91 8.73372666,90.944662 8.19335938,90.8339844 C7.65299209,90.7233067 7.11914326,90.5507824 6.59179688,90.3164062 C6.06445049,90.0820301 5.55989824,89.7792987 5.078125,89.4082031 C4.59635176,89.0371075 4.16992373,88.5878933 3.79882812,88.0605469 C3.42773252,87.5332005 3.13151152,86.9212274 2.91015625,86.2246094 C2.68880098,85.5279913 2.578125,84.7434939 2.578125,83.8710938 L2.578125,70.1210938 C2.578125,69.6523414 2.63346299,69.1477892 2.74414062,68.6074219 C2.85481826,68.0670546 3.02734258,67.5332058 3.26171875,67.0058594 C3.49609492,66.478513 3.80208145,65.9739607 4.1796875,65.4921875 C4.55729355,65.0104143 5.00976299,64.5839862 5.53710938,64.2128906 C6.06445576,63.841795 6.67317363,63.545574 7.36328125,63.3242188 C8.05338887,63.1028635 8.83463105,62.9921875 9.70703125,62.9921875 L28.0273438,62.9921875 L28.0273438,68.0703125 L9.70703125,68.0703125 C9.04296543,68.0703125 8.53515801,68.246092 8.18359375,68.5976562 C7.83202949,68.9492205 7.65625,69.4700486 7.65625,70.1601562 L7.65625,83.8710938 C7.65625,84.5221387 7.83528467,85.0266909 8.19335938,85.3847656 C8.55143408,85.7428403 9.05598633,85.921875 9.70703125,85.921875 L28.0273438,85.921875 L28.0273438,91 Z M41.5429688,91 L39.2773438,91 C38.5481734,91 37.7701864,90.8763033 36.9433594,90.6289062 C36.1165323,90.3815092 35.3450557,89.9746122 34.6289062,89.4082031 C33.9127568,88.841794 33.3203148,88.1061243 32.8515625,87.2011719 C32.3828102,86.2962194 32.1484375,85.1862045 32.1484375,83.8710938 L32.1484375,60.9609375 L37.2265625,60.9609375 L37.2265625,83.8710938 C37.2265625,84.4960969 37.421873,84.9941388 37.8125,85.3652344 C38.203127,85.73633 38.6914033,85.921875 39.2773438,85.921875 L41.5429688,85.921875 L41.5429688,91 Z M67.578125,88.4414062 C67.578125,88.8059914 67.5130215,89.1445297 67.3828125,89.4570312 C67.2526035,89.7695328 67.0735688,90.0397124 66.8457031,90.2675781 C66.6178374,90.4954438 66.350913,90.6744785 66.0449219,90.8046875 C65.7389308,90.9348965 65.410158,91 65.0585938,91 L53.5742188,91 C52.9492156,91 52.2819046,90.9283861 51.5722656,90.7851562 C50.8626267,90.6419264 50.1627639,90.4108089 49.4726562,90.0917969 C48.7825486,89.7727849 48.1152376,89.3691431 47.4707031,88.8808594 C46.8261687,88.3925757 46.2630232,87.8001337 45.78125,87.1035156 C45.2994768,86.4068976 44.9121108,85.6028691 44.6191406,84.6914062 C44.3261704,83.7799434 44.1796875,82.7513078 44.1796875,81.6054688 L44.1796875,69.8867188 L49.2578125,69.8867188 L49.2578125,81.6054688 C49.2578125,82.2695346 49.3717437,82.8652317 49.5996094,83.3925781 C49.8274751,83.9199245 50.1367168,84.3723939 50.5273438,84.75 C50.9179707,85.1276061 51.3769505,85.4173167 51.9042969,85.6191406 C52.4316433,85.8209646 53.001299,85.921875 53.6132812,85.921875 L62.5,85.921875 L62.5,69.8867188 L67.578125,69.8867188 L67.578125,88.4414062 Z M95.625,83.8710938 C95.625,84.352867 95.569662,84.8606744 95.4589844,85.3945312 C95.3483067,85.9283881 95.1757824,86.4589817 94.9414062,86.9863281 C94.7070301,87.5136745 94.4042987,88.0182268 94.0332031,88.5 C93.6621075,88.9817732 93.2128933,89.4082013 92.6855469,89.7792969 C92.1582005,90.1503925 91.5494826,90.4466135 90.859375,90.6679688 C90.1692674,90.889324 89.3880252,91 88.515625,91 L79.3554688,91 C78.8736955,91 78.3658881,90.944662 77.8320312,90.8339844 C77.2981744,90.7233067 76.7675808,90.5507824 76.2402344,90.3164062 C75.712888,90.0820301 75.2083357,89.7792987 74.7265625,89.4082031 C74.2447893,89.0371075 73.8183612,88.5878933 73.4472656,88.0605469 C73.07617,87.5332005 72.779949,86.9212274 72.5585938,86.2246094 C72.3372385,85.5279913 72.2265625,84.7434939 72.2265625,83.8710938 L72.2265625,60.9609375 L77.3046875,60.9609375 L77.3046875,83.8710938 C77.3046875,84.4960969 77.499998,84.9941388 77.890625,85.3652344 C78.281252,85.73633 78.7695283,85.921875 79.3554688,85.921875 L88.515625,85.921875 C89.153649,85.921875 89.6516909,85.7330748 90.0097656,85.3554688 C90.3678403,84.9778627 90.546875,84.483076 90.546875,83.8710938 L90.546875,76.9960938 C90.546875,76.3580697 90.3580748,75.8600278 89.9804688,75.5019531 C89.6028627,75.1438784 89.1145863,74.9648438 88.515625,74.9648438 L79.3554688,74.9648438 L79.3554688,69.8867188 L88.515625,69.8867188 C88.9973982,69.8867188 89.5052057,69.9420567 90.0390625,70.0527344 C90.5729193,70.163412 91.103513,70.3359363 91.6308594,70.5703125 C92.1582058,70.8046887 92.662758,71.10742 93.1445312,71.4785156 C93.6263045,71.8496112 94.0494773,72.2988255 94.4140625,72.8261719 C94.7786477,73.3535183 95.0716135,73.9622361 95.2929688,74.6523438 C95.514324,75.3424514 95.625,76.1236936 95.625,76.9960938 L95.625,83.8710938 Z" id="Club"></path>
                </g>
            </g>
        </g>
    </g>
</svg>